"indexSNP","codingVariant","gene","CHR","BP","A1A2","FRQ_A1 (cases)","FRQ_A1 (con)","P (GWAS)"
"rs56873913","rs2288920","PRRG2",19,50091199,"TG","0,775","0,766","2,188E-007"
"rs6670165","rs3176443","FAM5B",1,177280121,"TC","0,196","0,184","1,156E-007"
"chr5_140143664_I","11 variants","PCDHA1,2,3,4,5,8",5,140143664,"I12D","0,486","0,475","3,596E-007"
"rs6002655","rs133335","WBP2NL",22,42603814,"TC","0,456","0,443","1,475E-009"
"rs9607782","rs20551","EP300",22,41587556,"AT","0,25","0,232","6,763E-012"
"rs8082590","rs4584886","LRRC48",17,17958402,"AG","0,611","0,614","6,841E-009"
"rs8082590","rs2955365","MYO15A",17,17958402,"AG","0,611","0,614","6,841E-009"
"rs2535627","rs3617","ITIH3",3,52845105,"TC","0,545","0,529","3,956E-011"
"rs950169","rs950169","ADAMTSL3",15,84706461,"TC","0,247","0,257","7,62E-011"
"rs35518360","rs13107325 (1)","SLC39A8",4,103146890,"AT","0,909","0,922","9,562E-013"
"rs832187","rs3774729","ATXN7",3,63833050,"TC","0,607","0,615","2,584E-008"
